Machine Learning Results (Mod11)
…
Tuning grid specification

tree_grid<-
  # grid_regular- chooses sensible values for each hyper parameter
  grid_regular(
    cost_complexity(),
    tree_depth(),
    min_n(), #add to increase 25x
    levels = 5
  )

tree_grid

## # A tibble: 125 x 3
##    cost_complexity tree_depth min_n
##              <dbl>      <int> <int>
##  1    0.0000000001          1     2
##  2    0.0000000178          1     2
##  3    0.00000316            1     2
##  4    0.000562              1     2
##  5    0.1                   1     2
##  6    0.0000000001          4     2
##  7    0.0000000178          4     2
##  8    0.00000316            4     2
##  9    0.000562              4     2
## 10    0.1                   4     2
## # ... with 115 more rows
…
