TidyModels Analysis II
…
Initiate a new recipe for Nausea

Mod9_rec<-
  recipe(Nausea~., data = train_data)%>%
  step_dummy(all_nominal_predictors()) %>% 
  # creates dummy variables as a single factor
    # the all_nominal_predictors to apply the recipe to several variables at once
  step_zv(all_predictors()) 
  #removes columns from data when training set data have a single value
#formula to the left of "~" = model outcome
# predictors are to the right of "~"; can be listed of use "." to indicate ALL OTHER variables are predictors

summary(Mod9_rec) #view variables and their roles

## # A tibble: 32 x 4
##    variable          type    role      source  
##    <chr>             <chr>   <chr>     <chr>   
##  1 SwollenLymphNodes nominal predictor original
##  2 ChestCongestion   nominal predictor original
##  3 ChillsSweats      nominal predictor original
##  4 NasalCongestion   nominal predictor original
##  5 CoughYN           nominal predictor original
##  6 Sneeze            nominal predictor original
##  7 Fatigue           nominal predictor original
##  8 SubjectiveFever   nominal predictor original
##  9 Headache          nominal predictor original
## 10 Weakness          nominal predictor original
## # ... with 22 more rows
…
Creating a fit object

Prepare recipe and train model from resulting predictors

Mod9_fit<-
  Mod9_wflow%>%
  fit(data=train_data)

Extracting the model or recipe from workflow. Pull fitted model object and see the model coefficients

Mod9_fit%>%
  extract_fit_parsnip()%>%
  tidy()

## # A tibble: 38 x 5
##    term                  estimate std.error statistic p.value
##    <chr>                    <dbl>     <dbl>     <dbl>   <dbl>
##  1 (Intercept)             1.63      9.40       0.173  0.862 
##  2 BodyTemp               -0.0491    0.0961    -0.511  0.610 
##  3 SwollenLymphNodes_Yes  -0.241     0.232     -1.04   0.298 
##  4 ChestCongestion_Yes     0.219     0.257      0.853  0.394 
##  5 ChillsSweats_Yes        0.115     0.332      0.346  0.729 
##  6 NasalCongestion_Yes     0.560     0.311      1.80   0.0713
##  7 CoughYN_Yes            -0.705     0.611     -1.15   0.249 
##  8 Sneeze_Yes              0.117     0.248      0.473  0.636 
##  9 Fatigue_Yes             0.177     0.438      0.403  0.687 
## 10 SubjectiveFever_Yes     0.229     0.264      0.868  0.385 
## # ... with 28 more rows

Fitted object completed, apply the object to test data!

Use a trained workflow to predict unseen test data

predict(Mod9_fit, test_data)

## Warning in predict.lm(object, newdata, se.fit, scale = 1, type = if (type == :
## prediction from a rank-deficient fit may be misleading

## # A tibble: 183 x 1
##    .pred_class
##    <fct>      
##  1 No         
##  2 No         
##  3 No         
##  4 No         
##  5 No         
##  6 Yes        
##  7 Yes        
##  8 No         
##  9 No         
## 10 Yes        
## # ... with 173 more rows
…
Making augments can

Mod9_aug<-
  augment(Mod9_fit, test_data)

## Warning in predict.lm(object, newdata, se.fit, scale = 1, type = if (type == :
## prediction from a rank-deficient fit may be misleading

## Warning in predict.lm(object, newdata, se.fit, scale = 1, type = if (type == :
## prediction from a rank-deficient fit may be misleading

Mod9_aug

## # A tibble: 183 x 35
##    SwollenLymphNodes ChestCongestion ChillsSweats NasalCongestion CoughYN Sneeze
##    <fct>             <fct>           <fct>        <fct>           <fct>   <fct> 
##  1 Yes               No              No           No              Yes     No    
##  2 Yes               Yes             Yes          Yes             Yes     Yes   
##  3 No                No              Yes          No              Yes     No    
##  4 Yes               Yes             Yes          Yes             Yes     Yes   
##  5 No                Yes             No           No              Yes     Yes   
##  6 No                No              Yes          Yes             No      No    
##  7 No                No              Yes          Yes             Yes     Yes   
##  8 Yes               Yes             Yes          Yes             Yes     Yes   
##  9 No                No              Yes          Yes             Yes     No    
## 10 No                No              Yes          Yes             Yes     Yes   
## # ... with 173 more rows, and 29 more variables: Fatigue <fct>,
## #   SubjectiveFever <fct>, Headache <fct>, Weakness <fct>, WeaknessYN <fct>,
## #   CoughIntensity <fct>, CoughYN2 <fct>, Myalgia <fct>, MyalgiaYN <fct>,
## #   RunnyNose <fct>, AbPain <fct>, ChestPain <fct>, Diarrhea <fct>,
## #   EyePn <fct>, Insomnia <fct>, ItchyEye <fct>, Nausea <fct>, EarPn <fct>,
## #   Hearing <fct>, Pharyngitis <fct>, Breathless <fct>, ToothPn <fct>,
## #   Vision <fct>, Vomit <fct>, Wheeze <fct>, BodyTemp <dbl>, ...
…
## # A tibble: 2 x 5
##   term          estimate std.error statistic    p.value
##   <chr>            <dbl>     <dbl>     <dbl>      <dbl>
## 1 (Intercept)     -0.790     0.172    -4.59  0.00000447
## 2 RunnyNose_Yes    0.188     0.202     0.930 0.352

Use a trained workflow to predict unseen test data

If runny noses predict in nausea

Predict returns predicted class Yes or No

predict(ALTMod9_fit, test_data)

## # A tibble: 183 x 1
##    .pred_class
##    <fct>      
##  1 No         
##  2 No         
##  3 No         
##  4 No         
##  5 No         
##  6 No         
##  7 No         
##  8 No         
##  9 No         
## 10 No         
## # ... with 173 more rows

Using augment with the model plus test data to save prediction

ALTMod9_aug<-
  augment(ALTMod9_fit, test_data)
ALTMod9_aug

## # A tibble: 183 x 35
##    SwollenLymphNodes ChestCongestion ChillsSweats NasalCongestion CoughYN Sneeze
##    <fct>             <fct>           <fct>        <fct>           <fct>   <fct> 
##  1 Yes               No              No           No              Yes     No    
##  2 Yes               Yes             Yes          Yes             Yes     Yes   
##  3 No                No              Yes          No              Yes     No    
##  4 Yes               Yes             Yes          Yes             Yes     Yes   
##  5 No                Yes             No           No              Yes     Yes   
##  6 No                No              Yes          Yes             No      No    
##  7 No                No              Yes          Yes             Yes     Yes   
##  8 Yes               Yes             Yes          Yes             Yes     Yes   
##  9 No                No              Yes          Yes             Yes     No    
## 10 No                No              Yes          Yes             Yes     Yes   
## # ... with 173 more rows, and 29 more variables: Fatigue <fct>,
## #   SubjectiveFever <fct>, Headache <fct>, Weakness <fct>, WeaknessYN <fct>,
## #   CoughIntensity <fct>, CoughYN2 <fct>, Myalgia <fct>, MyalgiaYN <fct>,
## #   RunnyNose <fct>, AbPain <fct>, ChestPain <fct>, Diarrhea <fct>,
## #   EyePn <fct>, Insomnia <fct>, ItchyEye <fct>, Nausea <fct>, EarPn <fct>,
## #   Hearing <fct>, Pharyngitis <fct>, Breathless <fct>, ToothPn <fct>,
## #   Vision <fct>, Vomit <fct>, Wheeze <fct>, BodyTemp <dbl>, ...
…
#Creating the linear model type
lm_mod <- linear_reg() %>% set_engine("lm")

#Creating a workflow that adds the model type and the recipe I previously made
bodytemp_wrkflow <- workflow() %>% add_model(lm_mod) %>% add_recipe(bodytemp_rec)

#Creating a fit object
bodytemp_fit <- bodytemp_wrkflow %>% fit(data = train_data)

#Looking at the details of this fitted model (for train and test)
bodytemp_fit %>% extract_fit_parsnip() %>% tidy()

## # A tibble: 38 x 5
##    term                 estimate std.error statistic    p.value
##    <chr>                   <dbl>     <dbl>     <dbl>      <dbl>
##  1 (Intercept)           97.7        0.345   284.    0         
##  2 SwollenLymphNodesYes  -0.191      0.108    -1.77  0.0779    
##  3 ChestCongestionYes     0.128      0.116     1.10  0.272     
##  4 ChillsSweatsYes        0.196      0.148     1.32  0.188     
##  5 NasalCongestionYes    -0.163      0.137    -1.19  0.233     
##  6 CoughYNYes             0.380      0.289     1.31  0.189     
##  7 SneezeYes             -0.471      0.114    -4.13  0.0000425 
##  8 FatigueYes             0.354      0.187     1.89  0.0592    
##  9 SubjectiveFeverYes     0.558      0.119     4.70  0.00000338
## 10 HeadacheYes            0.0838     0.151     0.554 0.580     
## # ... with 28 more rows
…
