Tidy Tuesday Exercise 2
…
## `summarise()` has grouped output by 'team_name'. You can override using the `.groups` argument.

print(speedpoints)

## # A tibble: 32 x 7
## # Groups:   Team Name [16]
##    `Team Name`     `Marble Name`     n `Points Earned` `Points SD` `m/s` `m/s SD`
##    <fct>           <fct>         <int>           <dbl>       <dbl> <dbl>    <dbl>
##  1 Savage Speeders Speedy            4           14.8         7.41 0.446   0.0473
##  2 Snowballs       Snowy             4           14.5         9.47 0.447   0.0480
##  3 Team Primary    Prim              4           13.5         3    0.447   0.0462
##  4 Savage Speeders Rapidly           3           12          10.4  0.393   0.0417
##  5 Hazers          Smoggy            3           10.7         5.86 0.442   0.0533
##  6 O'rangers       Orangin           3            9.67       13.4  0.392   0.0339
##  7 Hazers          Hazy              4            9.25        8.62 0.410   0.0439
##  8 Green Ducks     Mallard           4            9           7.39 0.408   0.0449
##  9 Balls of Chaos  Clutter           4            8.75       11.8  0.407   0.0472
## 10 Team Galactic   Starry            4            8.75       11.1  0.408   0.0416
## # ... with 22 more rows
…
